DEPTH=1000;
WIDTH = 32;
ADDRESS_RADIX = HEX;
DATA_RADIX = HEX;

CONTENT
BEGIN
0 : 00000197;
1 : 0a418193;
2 : 00010117;
3 : ff410113;
4 : 00000297;
5 : 0b828293;
6 : 00000317;
7 : 0b430313;
8 : 0002a023;
9 : 00428293;
a : fe62ece3;
b : 004000ef;
c : fe010113;
d : 00812e23;
e : 02010413;
f : 0b802783;
10 : 25c00713;
11 : 00e7a023;
12 : 0c002703;
13 : 0ce02423;
14 : fe042623;
15 : fe042623;
16 : 03c0006f;
17 : 0b402703;
18 : 0c802783;
19 : 00178613;
1a : 0cc02423;
1b : 0007c783;
1c : 00f72023;
1d : 00000013;
1e : 0bc02783;
1f : 0007a783;
20 : 0017f793;
21 : fe079ae3;
22 : fec42783;
23 : 00178793;
24 : fef42623;
25 : fec42703;
26 : 0c402783;
27 : fcf760e3;
28 : 0000006f;
29 : 6c6c6548;
2a : 6f57206f;
2b : 0a646c72;
2c : 00000000;
2d : 80000008;
2e : 80000004;
2f : 80000000;
30 : 000000a4;
31 : 0000000c;
32 : 00000000;
33 : 00000000;
34 : 00000000;
35 : 00000000;
36 : 00000000;
37 : 00000000;
38 : 00000000;
39 : 00000000;
3a : 00000000;
3b : 00000000;
3c : 00000000;
3d : 00000000;
3e : 00000000;
3f : 00000000;
40 : 00000000;
41 : 00000000;
42 : 00000000;
43 : 00000000;
44 : 00000000;
45 : 00000000;
46 : 00000000;
47 : 00000000;
48 : 00000000;
49 : 00000000;
4a : 00000000;
4b : 00000000;
4c : 00000000;
4d : 00000000;
4e : 00000000;
4f : 00000000;
50 : 00000000;
51 : 00000000;
52 : 00000000;
53 : 00000000;
54 : 00000000;
55 : 00000000;
56 : 00000000;
57 : 00000000;
58 : 00000000;
59 : 00000000;
5a : 00000000;
5b : 00000000;
5c : 00000000;
5d : 00000000;
5e : 00000000;
5f : 00000000;
60 : 00000000;
61 : 00000000;
62 : 00000000;
63 : 00000000;
64 : 00000000;
65 : 00000000;
66 : 00000000;
67 : 00000000;
68 : 00000000;
69 : 00000000;
6a : 00000000;
6b : 00000000;
6c : 00000000;
6d : 00000000;
6e : 00000000;
6f : 00000000;
70 : 00000000;
71 : 00000000;
72 : 00000000;
73 : 00000000;
74 : 00000000;
75 : 00000000;
76 : 00000000;
77 : 00000000;
78 : 00000000;
79 : 00000000;
7a : 00000000;
7b : 00000000;
7c : 00000000;
7d : 00000000;
7e : 00000000;
7f : 00000000;
80 : 00000000;
81 : 00000000;
82 : 00000000;
83 : 00000000;
84 : 00000000;
85 : 00000000;
86 : 00000000;
87 : 00000000;
88 : 00000000;
89 : 00000000;
8a : 00000000;
8b : 00000000;
8c : 00000000;
8d : 00000000;
8e : 00000000;
8f : 00000000;
90 : 00000000;
91 : 00000000;
92 : 00000000;
93 : 00000000;
94 : 00000000;
95 : 00000000;
96 : 00000000;
97 : 00000000;
98 : 00000000;
99 : 00000000;
9a : 00000000;
9b : 00000000;
9c : 00000000;
9d : 00000000;
9e : 00000000;
9f : 00000000;
a0 : 00000000;
a1 : 00000000;
a2 : 00000000;
a3 : 00000000;
a4 : 00000000;
a5 : 00000000;
a6 : 00000000;
a7 : 00000000;
a8 : 00000000;
a9 : 00000000;
aa : 00000000;
ab : 00000000;
ac : 00000000;
ad : 00000000;
ae : 00000000;
af : 00000000;
b0 : 00000000;
b1 : 00000000;
b2 : 00000000;
b3 : 00000000;
b4 : 00000000;
b5 : 00000000;
b6 : 00000000;
b7 : 00000000;
b8 : 00000000;
b9 : 00000000;
ba : 00000000;
bb : 00000000;
bc : 00000000;
bd : 00000000;
be : 00000000;
bf : 00000000;
c0 : 00000000;
c1 : 00000000;
c2 : 00000000;
c3 : 00000000;
c4 : 00000000;
c5 : 00000000;
c6 : 00000000;
c7 : 00000000;
c8 : 00000000;
c9 : 00000000;
ca : 00000000;
cb : 00000000;
cc : 00000000;
cd : 00000000;
ce : 00000000;
cf : 00000000;
d0 : 00000000;
d1 : 00000000;
d2 : 00000000;
d3 : 00000000;
d4 : 00000000;
d5 : 00000000;
d6 : 00000000;
d7 : 00000000;
d8 : 00000000;
d9 : 00000000;
da : 00000000;
db : 00000000;
dc : 00000000;
dd : 00000000;
de : 00000000;
df : 00000000;
e0 : 00000000;
e1 : 00000000;
e2 : 00000000;
e3 : 00000000;
e4 : 00000000;
e5 : 00000000;
e6 : 00000000;
e7 : 00000000;
e8 : 00000000;
e9 : 00000000;
ea : 00000000;
eb : 00000000;
ec : 00000000;
ed : 00000000;
ee : 00000000;
ef : 00000000;
f0 : 00000000;
f1 : 00000000;
f2 : 00000000;
f3 : 00000000;
f4 : 00000000;
f5 : 00000000;
f6 : 00000000;
f7 : 00000000;
f8 : 00000000;
f9 : 00000000;
fa : 00000000;
fb : 00000000;
fc : 00000000;
fd : 00000000;
fe : 00000000;
ff : 00000000;
100 : 00000000;
101 : 00000000;
102 : 00000000;
103 : 00000000;
104 : 00000000;
105 : 00000000;
106 : 00000000;
107 : 00000000;
108 : 00000000;
109 : 00000000;
10a : 00000000;
10b : 00000000;
10c : 00000000;
10d : 00000000;
10e : 00000000;
10f : 00000000;
110 : 00000000;
111 : 00000000;
112 : 00000000;
113 : 00000000;
114 : 00000000;
115 : 00000000;
116 : 00000000;
117 : 00000000;
118 : 00000000;
119 : 00000000;
11a : 00000000;
11b : 00000000;
11c : 00000000;
11d : 00000000;
11e : 00000000;
11f : 00000000;
120 : 00000000;
121 : 00000000;
122 : 00000000;
123 : 00000000;
124 : 00000000;
125 : 00000000;
126 : 00000000;
127 : 00000000;
128 : 00000000;
129 : 00000000;
12a : 00000000;
12b : 00000000;
12c : 00000000;
12d : 00000000;
12e : 00000000;
12f : 00000000;
130 : 00000000;
131 : 00000000;
132 : 00000000;
133 : 00000000;
134 : 00000000;
135 : 00000000;
136 : 00000000;
137 : 00000000;
138 : 00000000;
139 : 00000000;
13a : 00000000;
13b : 00000000;
13c : 00000000;
13d : 00000000;
13e : 00000000;
13f : 00000000;
140 : 00000000;
141 : 00000000;
142 : 00000000;
143 : 00000000;
144 : 00000000;
145 : 00000000;
146 : 00000000;
147 : 00000000;
148 : 00000000;
149 : 00000000;
14a : 00000000;
14b : 00000000;
14c : 00000000;
14d : 00000000;
14e : 00000000;
14f : 00000000;
150 : 00000000;
151 : 00000000;
152 : 00000000;
153 : 00000000;
154 : 00000000;
155 : 00000000;
156 : 00000000;
157 : 00000000;
158 : 00000000;
159 : 00000000;
15a : 00000000;
15b : 00000000;
15c : 00000000;
15d : 00000000;
15e : 00000000;
15f : 00000000;
160 : 00000000;
161 : 00000000;
162 : 00000000;
163 : 00000000;
164 : 00000000;
165 : 00000000;
166 : 00000000;
167 : 00000000;
168 : 00000000;
169 : 00000000;
16a : 00000000;
16b : 00000000;
16c : 00000000;
16d : 00000000;
16e : 00000000;
16f : 00000000;
170 : 00000000;
171 : 00000000;
172 : 00000000;
173 : 00000000;
174 : 00000000;
175 : 00000000;
176 : 00000000;
177 : 00000000;
178 : 00000000;
179 : 00000000;
17a : 00000000;
17b : 00000000;
17c : 00000000;
17d : 00000000;
17e : 00000000;
17f : 00000000;
180 : 00000000;
181 : 00000000;
182 : 00000000;
183 : 00000000;
184 : 00000000;
185 : 00000000;
186 : 00000000;
187 : 00000000;
188 : 00000000;
189 : 00000000;
18a : 00000000;
18b : 00000000;
18c : 00000000;
18d : 00000000;
18e : 00000000;
18f : 00000000;
190 : 00000000;
191 : 00000000;
192 : 00000000;
193 : 00000000;
194 : 00000000;
195 : 00000000;
196 : 00000000;
197 : 00000000;
198 : 00000000;
199 : 00000000;
19a : 00000000;
19b : 00000000;
19c : 00000000;
19d : 00000000;
19e : 00000000;
19f : 00000000;
1a0 : 00000000;
1a1 : 00000000;
1a2 : 00000000;
1a3 : 00000000;
1a4 : 00000000;
1a5 : 00000000;
1a6 : 00000000;
1a7 : 00000000;
1a8 : 00000000;
1a9 : 00000000;
1aa : 00000000;
1ab : 00000000;
1ac : 00000000;
1ad : 00000000;
1ae : 00000000;
1af : 00000000;
1b0 : 00000000;
1b1 : 00000000;
1b2 : 00000000;
1b3 : 00000000;
1b4 : 00000000;
1b5 : 00000000;
1b6 : 00000000;
1b7 : 00000000;
1b8 : 00000000;
1b9 : 00000000;
1ba : 00000000;
1bb : 00000000;
1bc : 00000000;
1bd : 00000000;
1be : 00000000;
1bf : 00000000;
1c0 : 00000000;
1c1 : 00000000;
1c2 : 00000000;
1c3 : 00000000;
1c4 : 00000000;
1c5 : 00000000;
1c6 : 00000000;
1c7 : 00000000;
1c8 : 00000000;
1c9 : 00000000;
1ca : 00000000;
1cb : 00000000;
1cc : 00000000;
1cd : 00000000;
1ce : 00000000;
1cf : 00000000;
1d0 : 00000000;
1d1 : 00000000;
1d2 : 00000000;
1d3 : 00000000;
1d4 : 00000000;
1d5 : 00000000;
1d6 : 00000000;
1d7 : 00000000;
1d8 : 00000000;
1d9 : 00000000;
1da : 00000000;
1db : 00000000;
1dc : 00000000;
1dd : 00000000;
1de : 00000000;
1df : 00000000;
1e0 : 00000000;
1e1 : 00000000;
1e2 : 00000000;
1e3 : 00000000;
1e4 : 00000000;
1e5 : 00000000;
1e6 : 00000000;
1e7 : 00000000;
1e8 : 00000000;
1e9 : 00000000;
1ea : 00000000;
1eb : 00000000;
1ec : 00000000;
1ed : 00000000;
1ee : 00000000;
1ef : 00000000;
1f0 : 00000000;
1f1 : 00000000;
1f2 : 00000000;
1f3 : 00000000;
1f4 : 00000000;
1f5 : 00000000;
1f6 : 00000000;
1f7 : 00000000;
1f8 : 00000000;
1f9 : 00000000;
1fa : 00000000;
1fb : 00000000;
1fc : 00000000;
1fd : 00000000;
1fe : 00000000;
1ff : 00000000;
200 : 00000000;
201 : 00000000;
202 : 00000000;
203 : 00000000;
204 : 00000000;
205 : 00000000;
206 : 00000000;
207 : 00000000;
208 : 00000000;
209 : 00000000;
20a : 00000000;
20b : 00000000;
20c : 00000000;
20d : 00000000;
20e : 00000000;
20f : 00000000;
210 : 00000000;
211 : 00000000;
212 : 00000000;
213 : 00000000;
214 : 00000000;
215 : 00000000;
216 : 00000000;
217 : 00000000;
218 : 00000000;
219 : 00000000;
21a : 00000000;
21b : 00000000;
21c : 00000000;
21d : 00000000;
21e : 00000000;
21f : 00000000;
220 : 00000000;
221 : 00000000;
222 : 00000000;
223 : 00000000;
224 : 00000000;
225 : 00000000;
226 : 00000000;
227 : 00000000;
228 : 00000000;
229 : 00000000;
22a : 00000000;
22b : 00000000;
22c : 00000000;
22d : 00000000;
22e : 00000000;
22f : 00000000;
230 : 00000000;
231 : 00000000;
232 : 00000000;
233 : 00000000;
234 : 00000000;
235 : 00000000;
236 : 00000000;
237 : 00000000;
238 : 00000000;
239 : 00000000;
23a : 00000000;
23b : 00000000;
23c : 00000000;
23d : 00000000;
23e : 00000000;
23f : 00000000;
240 : 00000000;
241 : 00000000;
242 : 00000000;
243 : 00000000;
244 : 00000000;
245 : 00000000;
246 : 00000000;
247 : 00000000;
248 : 00000000;
249 : 00000000;
24a : 00000000;
24b : 00000000;
24c : 00000000;
24d : 00000000;
24e : 00000000;
24f : 00000000;
250 : 00000000;
251 : 00000000;
252 : 00000000;
253 : 00000000;
254 : 00000000;
255 : 00000000;
256 : 00000000;
257 : 00000000;
258 : 00000000;
259 : 00000000;
25a : 00000000;
25b : 00000000;
25c : 00000000;
25d : 00000000;
25e : 00000000;
25f : 00000000;
260 : 00000000;
261 : 00000000;
262 : 00000000;
263 : 00000000;
264 : 00000000;
265 : 00000000;
266 : 00000000;
267 : 00000000;
268 : 00000000;
269 : 00000000;
26a : 00000000;
26b : 00000000;
26c : 00000000;
26d : 00000000;
26e : 00000000;
26f : 00000000;
270 : 00000000;
271 : 00000000;
272 : 00000000;
273 : 00000000;
274 : 00000000;
275 : 00000000;
276 : 00000000;
277 : 00000000;
278 : 00000000;
279 : 00000000;
27a : 00000000;
27b : 00000000;
27c : 00000000;
27d : 00000000;
27e : 00000000;
27f : 00000000;
280 : 00000000;
281 : 00000000;
282 : 00000000;
283 : 00000000;
284 : 00000000;
285 : 00000000;
286 : 00000000;
287 : 00000000;
288 : 00000000;
289 : 00000000;
28a : 00000000;
28b : 00000000;
28c : 00000000;
28d : 00000000;
28e : 00000000;
28f : 00000000;
290 : 00000000;
291 : 00000000;
292 : 00000000;
293 : 00000000;
294 : 00000000;
295 : 00000000;
296 : 00000000;
297 : 00000000;
298 : 00000000;
299 : 00000000;
29a : 00000000;
29b : 00000000;
29c : 00000000;
29d : 00000000;
29e : 00000000;
29f : 00000000;
2a0 : 00000000;
2a1 : 00000000;
2a2 : 00000000;
2a3 : 00000000;
2a4 : 00000000;
2a5 : 00000000;
2a6 : 00000000;
2a7 : 00000000;
2a8 : 00000000;
2a9 : 00000000;
2aa : 00000000;
2ab : 00000000;
2ac : 00000000;
2ad : 00000000;
2ae : 00000000;
2af : 00000000;
2b0 : 00000000;
2b1 : 00000000;
2b2 : 00000000;
2b3 : 00000000;
2b4 : 00000000;
2b5 : 00000000;
2b6 : 00000000;
2b7 : 00000000;
2b8 : 00000000;
2b9 : 00000000;
2ba : 00000000;
2bb : 00000000;
2bc : 00000000;
2bd : 00000000;
2be : 00000000;
2bf : 00000000;
2c0 : 00000000;
2c1 : 00000000;
2c2 : 00000000;
2c3 : 00000000;
2c4 : 00000000;
2c5 : 00000000;
2c6 : 00000000;
2c7 : 00000000;
2c8 : 00000000;
2c9 : 00000000;
2ca : 00000000;
2cb : 00000000;
2cc : 00000000;
2cd : 00000000;
2ce : 00000000;
2cf : 00000000;
2d0 : 00000000;
2d1 : 00000000;
2d2 : 00000000;
2d3 : 00000000;
2d4 : 00000000;
2d5 : 00000000;
2d6 : 00000000;
2d7 : 00000000;
2d8 : 00000000;
2d9 : 00000000;
2da : 00000000;
2db : 00000000;
2dc : 00000000;
2dd : 00000000;
2de : 00000000;
2df : 00000000;
2e0 : 00000000;
2e1 : 00000000;
2e2 : 00000000;
2e3 : 00000000;
2e4 : 00000000;
2e5 : 00000000;
2e6 : 00000000;
2e7 : 00000000;
2e8 : 00000000;
2e9 : 00000000;
2ea : 00000000;
2eb : 00000000;
2ec : 00000000;
2ed : 00000000;
2ee : 00000000;
2ef : 00000000;
2f0 : 00000000;
2f1 : 00000000;
2f2 : 00000000;
2f3 : 00000000;
2f4 : 00000000;
2f5 : 00000000;
2f6 : 00000000;
2f7 : 00000000;
2f8 : 00000000;
2f9 : 00000000;
2fa : 00000000;
2fb : 00000000;
2fc : 00000000;
2fd : 00000000;
2fe : 00000000;
2ff : 00000000;
300 : 00000000;
301 : 00000000;
302 : 00000000;
303 : 00000000;
304 : 00000000;
305 : 00000000;
306 : 00000000;
307 : 00000000;
308 : 00000000;
309 : 00000000;
30a : 00000000;
30b : 00000000;
30c : 00000000;
30d : 00000000;
30e : 00000000;
30f : 00000000;
310 : 00000000;
311 : 00000000;
312 : 00000000;
313 : 00000000;
314 : 00000000;
315 : 00000000;
316 : 00000000;
317 : 00000000;
318 : 00000000;
319 : 00000000;
31a : 00000000;
31b : 00000000;
31c : 00000000;
31d : 00000000;
31e : 00000000;
31f : 00000000;
320 : 00000000;
321 : 00000000;
322 : 00000000;
323 : 00000000;
324 : 00000000;
325 : 00000000;
326 : 00000000;
327 : 00000000;
328 : 00000000;
329 : 00000000;
32a : 00000000;
32b : 00000000;
32c : 00000000;
32d : 00000000;
32e : 00000000;
32f : 00000000;
330 : 00000000;
331 : 00000000;
332 : 00000000;
333 : 00000000;
334 : 00000000;
335 : 00000000;
336 : 00000000;
337 : 00000000;
338 : 00000000;
339 : 00000000;
33a : 00000000;
33b : 00000000;
33c : 00000000;
33d : 00000000;
33e : 00000000;
33f : 00000000;
340 : 00000000;
341 : 00000000;
342 : 00000000;
343 : 00000000;
344 : 00000000;
345 : 00000000;
346 : 00000000;
347 : 00000000;
348 : 00000000;
349 : 00000000;
34a : 00000000;
34b : 00000000;
34c : 00000000;
34d : 00000000;
34e : 00000000;
34f : 00000000;
350 : 00000000;
351 : 00000000;
352 : 00000000;
353 : 00000000;
354 : 00000000;
355 : 00000000;
356 : 00000000;
357 : 00000000;
358 : 00000000;
359 : 00000000;
35a : 00000000;
35b : 00000000;
35c : 00000000;
35d : 00000000;
35e : 00000000;
35f : 00000000;
360 : 00000000;
361 : 00000000;
362 : 00000000;
363 : 00000000;
364 : 00000000;
365 : 00000000;
366 : 00000000;
367 : 00000000;
368 : 00000000;
369 : 00000000;
36a : 00000000;
36b : 00000000;
36c : 00000000;
36d : 00000000;
36e : 00000000;
36f : 00000000;
370 : 00000000;
371 : 00000000;
372 : 00000000;
373 : 00000000;
374 : 00000000;
375 : 00000000;
376 : 00000000;
377 : 00000000;
378 : 00000000;
379 : 00000000;
37a : 00000000;
37b : 00000000;
37c : 00000000;
37d : 00000000;
37e : 00000000;
37f : 00000000;
380 : 00000000;
381 : 00000000;
382 : 00000000;
383 : 00000000;
384 : 00000000;
385 : 00000000;
386 : 00000000;
387 : 00000000;
388 : 00000000;
389 : 00000000;
38a : 00000000;
38b : 00000000;
38c : 00000000;
38d : 00000000;
38e : 00000000;
38f : 00000000;
390 : 00000000;
391 : 00000000;
392 : 00000000;
393 : 00000000;
394 : 00000000;
395 : 00000000;
396 : 00000000;
397 : 00000000;
398 : 00000000;
399 : 00000000;
39a : 00000000;
39b : 00000000;
39c : 00000000;
39d : 00000000;
39e : 00000000;
39f : 00000000;
3a0 : 00000000;
3a1 : 00000000;
3a2 : 00000000;
3a3 : 00000000;
3a4 : 00000000;
3a5 : 00000000;
3a6 : 00000000;
3a7 : 00000000;
3a8 : 00000000;
3a9 : 00000000;
3aa : 00000000;
3ab : 00000000;
3ac : 00000000;
3ad : 00000000;
3ae : 00000000;
3af : 00000000;
3b0 : 00000000;
3b1 : 00000000;
3b2 : 00000000;
3b3 : 00000000;
3b4 : 00000000;
3b5 : 00000000;
3b6 : 00000000;
3b7 : 00000000;
3b8 : 00000000;
3b9 : 00000000;
3ba : 00000000;
3bb : 00000000;
3bc : 00000000;
3bd : 00000000;
3be : 00000000;
3bf : 00000000;
3c0 : 00000000;
3c1 : 00000000;
3c2 : 00000000;
3c3 : 00000000;
3c4 : 00000000;
3c5 : 00000000;
3c6 : 00000000;
3c7 : 00000000;
3c8 : 00000000;
3c9 : 00000000;
3ca : 00000000;
3cb : 00000000;
3cc : 00000000;
3cd : 00000000;
3ce : 00000000;
3cf : 00000000;
3d0 : 00000000;
3d1 : 00000000;
3d2 : 00000000;
3d3 : 00000000;
3d4 : 00000000;
3d5 : 00000000;
3d6 : 00000000;
3d7 : 00000000;
3d8 : 00000000;
3d9 : 00000000;
3da : 00000000;
3db : 00000000;
3dc : 00000000;
3dd : 00000000;
3de : 00000000;
3df : 00000000;
3e0 : 00000000;
3e1 : 00000000;
3e2 : 00000000;
3e3 : 00000000;
3e4 : 00000000;
3e5 : 00000000;
3e6 : 00000000;
3e7 : 00000000;

END;
